Lab1/Files/VHDL_synth/vcd/IIR_syn.vcd
$date
	Thu Nov 18 15:24:34 2021
$end
$version
	ModelSim Version 6.2g
$end
$timescale
	1ns
$end
$scope module tb_fir $end
$scope module UUT $end
$var wire 1 ! din [13] $end
$var wire 1 " din [12] $end
$var wire 1 # din [11] $end
$var wire 1 $ din [10] $end
$var wire 1 % din [9] $end
$var wire 1 & din [8] $end
$var wire 1 ' din [7] $end
$var wire 1 ( din [6] $end
$var wire 1 ) din [5] $end
$var wire 1 * din [4] $end
$var wire 1 + din [3] $end
$var wire 1 , din [2] $end
$var wire 1 - din [1] $end
$var wire 1 . din [0] $end
$var wire 1 / vin $end
$var wire 1 0 rst_n $end
$var wire 1 1 clk $end
$var wire 1 2 a0 [13] $end
$var wire 1 3 a0 [12] $end
$var wire 1 4 a0 [11] $end
$var wire 1 5 a0 [10] $end
$var wire 1 6 a0 [9] $end
$var wire 1 7 a0 [8] $end
$var wire 1 8 a0 [7] $end
$var wire 1 9 a0 [6] $end
$var wire 1 : a0 [5] $end
$var wire 1 ; a0 [4] $end
$var wire 1 < a0 [3] $end
$var wire 1 = a0 [2] $end
$var wire 1 > a0 [1] $end
$var wire 1 ? a0 [0] $end
$var wire 1 @ a1 [13] $end
$var wire 1 A a1 [12] $end
$var wire 1 B a1 [11] $end
$var wire 1 C a1 [10] $end
$var wire 1 D a1 [9] $end
$var wire 1 E a1 [8] $end
$var wire 1 F a1 [7] $end
$var wire 1 G a1 [6] $end
$var wire 1 H a1 [5] $end
$var wire 1 I a1 [4] $end
$var wire 1 J a1 [3] $end
$var wire 1 K a1 [2] $end
$var wire 1 L a1 [1] $end
$var wire 1 M a1 [0] $end
$var wire 1 N b0 [13] $end
$var wire 1 O b0 [12] $end
$var wire 1 P b0 [11] $end
$var wire 1 Q b0 [10] $end
$var wire 1 R b0 [9] $end
$var wire 1 S b0 [8] $end
$var wire 1 T b0 [7] $end
$var wire 1 U b0 [6] $end
$var wire 1 V b0 [5] $end
$var wire 1 W b0 [4] $end
$var wire 1 X b0 [3] $end
$var wire 1 Y b0 [2] $end
$var wire 1 Z b0 [1] $end
$var wire 1 [ b0 [0] $end
$var wire 1 \ b1 [13] $end
$var wire 1 ] b1 [12] $end
$var wire 1 ^ b1 [11] $end
$var wire 1 _ b1 [10] $end
$var wire 1 ` b1 [9] $end
$var wire 1 a b1 [8] $end
$var wire 1 b b1 [7] $end
$var wire 1 c b1 [6] $end
$var wire 1 d b1 [5] $end
$var wire 1 e b1 [4] $end
$var wire 1 f b1 [3] $end
$var wire 1 g b1 [2] $end
$var wire 1 h b1 [1] $end
$var wire 1 i b1 [0] $end
$var wire 1 j dout [13] $end
$var wire 1 k dout [12] $end
$var wire 1 l dout [11] $end
$var wire 1 m dout [10] $end
$var wire 1 n dout [9] $end
$var wire 1 o dout [8] $end
$var wire 1 p dout [7] $end
$var wire 1 q dout [6] $end
$var wire 1 r dout [5] $end
$var wire 1 s dout [4] $end
$var wire 1 t dout [3] $end
$var wire 1 u dout [2] $end
$var wire 1 v dout [1] $end
$var wire 1 w dout [0] $end
$var wire 1 x vout $end
$var wire 1 y dout_13_port $end
$var wire 1 z dout_12_port $end
$var wire 1 { dout_11_port $end
$var wire 1 | dout_10_port $end
$var wire 1 } dout_9_port $end
$var wire 1 ~ dout_8_port $end
$var wire 1 !! dout_7_port $end
$var wire 1 "! dout_6_port $end
$var wire 1 #! dout_5_port $end
$var wire 1 $! dout_4_port $end
$var wire 1 %! dout_3_port $end
$var wire 1 &! dout_2_port $end
$var wire 1 '! dout_1_port $end
$var wire 1 (! dout_0_port $end
$var wire 1 )! w_past_14_port $end
$var wire 1 *! w_past_13_port $end
$var wire 1 +! w_past_12_port $end
$var wire 1 ,! w_past_11_port $end
$var wire 1 -! w_past_10_port $end
$var wire 1 .! w_past_9_port $end
$var wire 1 /! w_past_8_port $end
$var wire 1 0! w_past_7_port $end
$var wire 1 1! w_past_6_port $end
$var wire 1 2! w_past_5_port $end
$var wire 1 3! w_past_4_port $end
$var wire 1 4! w_past_3_port $end
$var wire 1 5! w_past_2_port $end
$var wire 1 6! w_past_1_port $end
$var wire 1 7! w_past_0_port $end
$var wire 1 8! n4 $end
$var wire 1 9! n5 $end
$var wire 1 :! n6 $end
$var wire 1 ;! n7 $end
$var wire 1 <! n8 $end
$var wire 1 =! n9 $end
$var wire 1 >! fb_5_port $end
$var wire 1 ?! fb_4_port $end
$var wire 1 @! fb_3_port $end
$var wire 1 A! fb_2_port $end
$var wire 1 B! fb_1_port $end
$var wire 1 C! fb_0_port $end
$var wire 1 D! n10 $end
$var wire 1 E! n11 $end
$var wire 1 F! n12 $end
$var wire 1 G! n13 $end
$var wire 1 H! n14 $end
$var wire 1 I! n15 $end
$var wire 1 J! n16 $end
$var wire 1 K! n17 $end
$var wire 1 L! n18 $end
$var wire 1 M! n19 $end
$var wire 1 N! n20 $end
$var wire 1 O! n21 $end
$var wire 1 P! n22 $end
$var wire 1 Q! n23 $end
$var wire 1 R! n24 $end
$var wire 1 S! w_14_port $end
$var wire 1 T! w_13_port $end
$var wire 1 U! w_12_port $end
$var wire 1 V! w_11_port $end
$var wire 1 W! w_10_port $end
$var wire 1 X! w_9_port $end
$var wire 1 Y! w_8_port $end
$var wire 1 Z! w_7_port $end
$var wire 1 [! w_6_port $end
$var wire 1 \! w_5_port $end
$var wire 1 ]! w_4_port $end
$var wire 1 ^! w_3_port $end
$var wire 1 _! w_2_port $end
$var wire 1 `! w_1_port $end
$var wire 1 a! w_0_port $end
$var wire 1 b! n25 $end
$var wire 1 c! n26 $end
$var wire 1 d! n27 $end
$var wire 1 e! n28 $end
$var wire 1 f! n29 $end
$var wire 1 g! n30 $end
$var wire 1 h! n31 $end
$var wire 1 i! ff_tmp_0_26_port $end
$var wire 1 j! ff_tmp_0_25_port $end
$var wire 1 k! ff_tmp_0_24_port $end
$var wire 1 l! ff_tmp_0_23_port $end
$var wire 1 m! ff_tmp_0_22_port $end
$var wire 1 n! ff_tmp_0_21_port $end
$var wire 1 o! ff_tmp_0_20_port $end
$var wire 1 p! n32 $end
$var wire 1 q! n33 $end
$var wire 1 r! n34 $end
$var wire 1 s! n35 $end
$var wire 1 t! n36 $end
$var wire 1 u! n37 $end
$var wire 1 v! n38 $end
$var wire 1 w! ff_tmp_1_26_port $end
$var wire 1 x! ff_tmp_1_25_port $end
$var wire 1 y! ff_tmp_1_24_port $end
$var wire 1 z! ff_tmp_1_23_port $end
$var wire 1 {! ff_tmp_1_22_port $end
$var wire 1 |! ff_tmp_1_21_port $end
$var wire 1 }! ff_tmp_1_20_port $end
$var wire 1 ~! n39 $end
$var wire 1 !" n40 $end
$var wire 1 "" n41 $end
$var wire 1 #" n42 $end
$var wire 1 $" n43 $end
$var wire 1 %" n44 $end
$var wire 1 &" n45 $end
$var wire 1 '" n1 $end
$var wire 1 (" n29_port $end
$var wire 1 )" n30_port $end
$var wire 1 *" n32_port $end
$var wire 1 +" n33_port $end
$var wire 1 ," n34_port $end
$var wire 1 -" n35_port $end
$var wire 1 ." n36_port $end
$var wire 1 /" n37_port $end
$var wire 1 0" n38_port $end
$var wire 1 1" n39_port $end
$var wire 1 2" n40_port $end
$var wire 1 3" n41_port $end
$var wire 1 4" n42_port $end
$var wire 1 5" n43_port $end
$var wire 1 6" n44_port $end
$var wire 1 7" n45_port $end
$var wire 1 8" n46 $end
$var wire 1 9" n47 $end
$var wire 1 :" n48 $end
$var wire 1 ;" n49 $end
$var wire 1 <" n50 $end
$var wire 1 =" n51 $end
$var wire 1 >" n52 $end
$var wire 1 ?" n53 $end
$var wire 1 @" add_37_carry_1_port $end
$var wire 1 A" add_37_carry_2_port $end
$var wire 1 B" add_37_carry_3_port $end
$var wire 1 C" add_37_carry_4_port $end
$var wire 1 D" add_37_carry_5_port $end
$var wire 1 E" add_37_carry_6_port $end
$var wire 1 F" add_37_carry_7_port $end
$var wire 1 G" add_37_carry_8_port $end
$var wire 1 H" add_37_carry_9_port $end
$var wire 1 I" add_37_carry_10_port $end
$var wire 1 J" add_37_carry_11_port $end
$var wire 1 K" add_37_carry_12_port $end
$var wire 1 L" add_37_carry_13_port $end
$var wire 1 M" add_37_carry_14_port $end
$var wire 1 N" n54 $end
$var wire 1 O" n55 $end
$var wire 1 P" n56 $end
$var wire 1 Q" n57 $end
$var wire 1 R" n58 $end
$var wire 1 S" n59 $end
$var wire 1 T" n60 $end
$var wire 1 U" n61 $end
$var wire 1 V" n62 $end
$var wire 1 W" n63 $end
$var wire 1 X" n64 $end
$var wire 1 Y" n65 $end
$var wire 1 Z" n66 $end
$var wire 1 [" n67 $end
$var wire 1 \" n68 $end
$var wire 1 ]" n69 $end
$var wire 1 ^" n70 $end
$var wire 1 _" n71 $end
$var wire 1 `" n72 $end
$var wire 1 a" n73 $end
$var wire 1 b" n74 $end
$var wire 1 c" n75 $end
$var wire 1 d" n76 $end
$var wire 1 e" n77 $end
$var wire 1 f" n78 $end
$var wire 1 g" n79 $end
$var wire 1 h" n80 $end
$var wire 1 i" n81 $end
$var wire 1 j" n82 $end
$var wire 1 k" n_1070 $end
$var wire 1 l" n_1071 $end
$var wire 1 m" n_1072 $end
$var wire 1 n" n_1073 $end
$var wire 1 o" n_1074 $end
$var wire 1 p" n_1075 $end
$var wire 1 q" n_1076 $end
$var wire 1 r" n_1077 $end
$var wire 1 s" n_1078 $end
$var wire 1 t" n_1079 $end
$var wire 1 u" n_1080 $end
$var wire 1 v" n_1081 $end
$var wire 1 w" n_1082 $end
$var wire 1 x" n_1083 $end
$var wire 1 y" n_1084 $end
$var wire 1 z" n_1085 $end
$var wire 1 {" n_1086 $end
$var wire 1 |" n_1087 $end
$var wire 1 }" n_1088 $end
$var wire 1 ~" n_1089 $end
$var wire 1 !# n_1090 $end
$var wire 1 "# n_1091 $end
$var wire 1 ## n_1092 $end
$var wire 1 $# n_1093 $end
$var wire 1 %# n_1094 $end
$var wire 1 &# n_1095 $end
$var wire 1 '# n_1096 $end
$var wire 1 (# n_1097 $end
$var wire 1 )# n_1098 $end
$var wire 1 *# n_1099 $end
$var wire 1 +# n_1100 $end
$var wire 1 ,# n_1101 $end
$var wire 1 -# n_1102 $end
$var wire 1 .# n_1103 $end
$var wire 1 /# n_1104 $end
$var wire 1 0# n_1105 $end
$var wire 1 1# n_1106 $end
$var wire 1 2# n_1107 $end
$var wire 1 3# n_1108 $end
$var wire 1 4# n_1109 $end
$var wire 1 5# n_1110 $end
$var wire 1 6# n_1111 $end
$var wire 1 7# n_1112 $end
$var wire 1 8# n_1113 $end
$var wire 1 9# n_1114 $end
$var wire 1 :# n_1115 $end
$var wire 1 ;# n_1116 $end
$var wire 1 <# n_1117 $end
$var wire 1 =# n_1118 $end
$var wire 1 ># n_1119 $end
$var wire 1 ?# n_1120 $end
$var wire 1 @# n_1121 $end
$var wire 1 A# n_1122 $end
$var wire 1 B# n_1123 $end
$var wire 1 C# n_1124 $end
$var wire 1 D# n_1125 $end
$var wire 1 E# n_1126 $end
$var wire 1 F# n_1127 $end
$var wire 1 G# n_1128 $end
$var wire 1 H# n_1129 $end
$var wire 1 I# n_1130 $end
$var wire 1 J# n_1131 $end
$var wire 1 K# n_1132 $end
$var wire 1 L# n_1133 $end
$var wire 1 M# n_1134 $end
$var wire 1 N# n_1135 $end
$var wire 1 O# n_1136 $end
$var wire 1 P# n_1137 $end
$var wire 1 Q# n_1138 $end
$var wire 1 R# n_1139 $end
$var wire 1 S# n_1140 $end
$var wire 1 T# n_1141 $end
$var wire 1 U# n_1142 $end
$var wire 1 V# n_1143 $end
$var wire 1 W# n_1144 $end
$var wire 1 X# n_1145 $end
$var wire 1 Y# n_1146 $end
$var wire 1 Z# n_1147 $end
$var wire 1 [# n_1148 $end
$var wire 1 \# n_1149 $end
$var wire 1 ]# n_1150 $end
$var wire 1 ^# n_1151 $end
$var wire 1 _# n_1152 $end
$var wire 1 `# n_1153 $end
$var wire 1 a# n_1154 $end
$var wire 1 b# n_1155 $end
$var wire 1 c# n_1156 $end
$var wire 1 d# n_1157 $end
$var wire 1 e# n_1158 $end
$var wire 1 f# n_1159 $end
$var wire 1 g# n_1160 $end
$var wire 1 h# n_1161 $end
$upscope $end
$upscope $end
$enddefinitions $end
#0
$dumpvars
x!
x"
x#
x$
x%
x&
x'
x(
x)
x*
x+
x,
x-
x.
x/
00
01
02
03
04
05
06
07
08
09
0:
0;
0<
0=
0>
1?
0@
0A
0B
1C
0D
1E
0F
0G
0H
1I
0J
0K
1L
0M
0N
0O
1P
1Q
0R
1S
0T
1U
1V
1W
0X
1Y
1Z
1[
0\
0]
1^
1_
0`
1a
0b
1c
1d
1e
0f
1g
1h
1i
xj
xk
xl
xm
xn
xo
xp
0q
0r
0s
0t
0u
0v
0w
xx
xy
xz
x{
x|
x}
x~
x!!
0"!
0#!
0$!
0%!
0&!
0'!
0(!
x)!
x*!
x+!
x,!
x-!
x.!
x/!
x0!
x1!
x2!
x3!
x4!
x5!
x6!
x7!
x8!
x9!
x:!
x;!
x<!
x=!
0>!
0?!
0@!
0A!
0B!
0C!
xD!
xE!
xF!
xG!
xH!
xI!
xJ!
xK!
xL!
xM!
xN!
xO!
xP!
xQ!
xR!
0S!
0T!
0U!
0V!
0W!
0X!
0Y!
0Z!
0[!
0\!
0]!
0^!
0_!
0`!
0a!
0b!
0c!
0d!
0e!
0f!
0g!
0h!
0i!
0j!
0k!
0l!
0m!
0n!
0o!
xp!
xq!
xr!
xs!
xt!
xu!
xv!
0w!
0x!
0y!
0z!
0{!
0|!
0}!
0~!
0!"
0""
0#"
0$"
0%"
0&"
0'"
1("
0)"
1*"
1+"
1,"
1-"
1."
1/"
10"
11"
12"
13"
14"
15"
16"
17"
18"
19"
1:"
1;"
1<"
1="
1>"
0?"
0@"
0A"
0B"
0C"
0D"
0E"
0F"
0G"
0H"
0I"
0J"
0K"
0L"
0M"
1N"
0O"
1P"
1Q"
1R"
1S"
1T"
0U"
0V"
0W"
0X"
0Y"
0Z"
0["
0\"
0]"
0^"
0_"
0`"
0a"
0b"
0c"
0d"
0e"
0f"
0g"
0h"
0i"
0j"
xk"
xl"
xm"
xn"
xo"
xp"
xq"
xr"
xs"
xt"
xu"
xv"
xw"
xx"
xy"
xz"
x{"
x|"
x}"
x~"
x!#
x"#
x##
x$#
x%#
x&#
x'#
x(#
x)#
x*#
x+#
x,#
x-#
x.#
x/#
x0#
x1#
x2#
x3#
x4#
x5#
x6#
x7#
x8#
x9#
x:#
x;#
x<#
x=#
x>#
x?#
x@#
xA#
xB#
xC#
xD#
xE#
xF#
xG#
xH#
xI#
xJ#
xK#
xL#
xM#
xN#
xO#
xP#
xQ#
xR#
xS#
xT#
xU#
xV#
xW#
xX#
xY#
xZ#
x[#
x\#
x]#
x^#
x_#
x`#
xa#
xb#
xc#
xd#
xe#
xf#
xg#
0h#
$end
#1
0!
0"
0#
0$
0%
0&
0'
0(
0)
0*
0+
0,
0-
0.
0/
0D!
0E!
0F!
0G!
0H!
0I!
0J!
0K!
0L!
0M!
0N!
0O!
0P!
0R!
0Q!
#5
11
1z"
0x
1k"
0)!
1l"
0*!
1m"
0+!
1n"
0,!
1o"
0-!
1p"
0.!
1q"
0/!
1r"
00!
1s"
01!
1t"
02!
1u"
03!
1v"
04!
1w"
05!
1x"
06!
1y"
07!
1{"
0y
1|"
0z
1}"
0{
1~"
0|
1!#
0}
1"#
0~
1##
0!!
0p
0o
0n
0m
0l
0k
0j
0p!
0q!
08!
0r!
09!
0s!
0:!
0t!
0;!
0u!
0<!
0v!
0=!
#10
01
#15
10
0T"
11
1)"
0N"
0S"
0R"
1O"
0Q"
0P"
0)"
#16
1/
1?"
1N"
1S"
1R"
0O"
1Q"
1P"
1)"
#20
01
#25
11
0z"
1x
#26
1#
1&
1'
1(
1)
1-
1.
1D!
1E!
1I!
1J!
1K!
1L!
1O!
1a!
1`!
1\!
1[!
1Z!
1Y!
1V!
00"
01"
05"
06"
07"
08"
0;"
1j"
1i"
1e"
1d"
1c"
1b"
1_"
1e!
1f!
0f!
1l!
1k!
1c!
1b!
0k!
1d!
1n!
1o!
1$"
1#"
0b!
0c!
0e!
1m!
1~!
0-"
0,"
0o!
1!"
0$"
0d!
0n!
0l!
0("
1W"
1X"
0~!
0*"
1-"
1""
1e!
0m!
1["
1("
1Z"
0W"
0+"
0#"
0!"
1l!
0["
1Y"
1,"
1*"
0""
0X"
0Z"
1+"
1#"
0Y"
0,"
1X"
#30
01
#35
11
0n"
1,!
0q"
1/!
0r"
10!
0s"
11!
0t"
12!
0x"
16!
0y"
17!
0~"
1|
1m
1s!
1t!
0t!
1z!
1y!
1:!
1p!
19!
1q!
1;!
0y!
1r!
0:!
0;!
1A!
1}!
1B!
1|!
1@!
1$"
0#"
0p!
18!
09!
1:!
19!
0q!
0s!
1{!
0A!
0@!
1~!
1A"
0-"
1,"
0}!
1C!
0B!
1G!
1!"
0E!
1F!
1A!
0:!
1B!
0r!
0|!
0z!
0("
1W"
0X"
0~!
0D!
1@"
0A"
1^!
0*"
0`!
1_!
1E!
0G!
1""
0A!
1s!
0{!
1["
1("
0a!
1A"
03"
1Z"
11"
02"
1`!
0^!
0+"
1#"
0!"
1z!
0$"
0["
10"
1g"
0i"
1h"
01"
13"
1Y"
0,"
1*"
0""
1-"
0j"
1i"
0g"
1X"
0Z"
1+"
0#"
1$"
0W"
0Y"
1,"
0-"
0X"
1W"
#36
0#
0&
0'
0(
0)
0-
0.
1D!
0@"
0E!
0I!
0J!
0K!
0L!
0O!
1a!
0A"
1E!
0`!
0\!
0[!
0Z!
0Y!
0V!
00"
0F!
1`!
11"
15"
16"
17"
18"
1;"
1j"
0_!
01"
0i"
0e"
0d"
0c"
0b"
0_"
12"
1i"
0h"
0e!
1f!
1g!
0f!
0l!
1k!
1d!
1b!
1j!
0g!
0k!
1c!
1m!
1o!
0$"
1#"
0b!
0d!
0c!
0j!
1d!
1n!
1~!
1-"
0,"
0o!
0m!
1""
1h!
1&"
0d!
0n!
1e!
1m!
0("
0W"
1X"
0~!
0+"
1i!
0""
1!"
0h!
0/"
0e!
0m!
1f!
1l!
1["
1("
1Y"
1+"
0*"
0i!
1""
0!"
1U"
0f!
0l!
1g!
1k!
0["
0Y"
1Z"
0+"
1*"
0&"
0#"
0""
0g!
0k!
1j!
1Y"
0Z"
1/"
1,"
1+"
1#"
0j!
1b!
0U"
0X"
0Y"
0,"
1h!
0b!
1&"
1c!
1o!
1X"
1i!
0h!
0c!
0o!
0/"
1d!
1n!
1~!
0i!
0d!
0n!
0~!
1U"
1e!
1m!
0("
0&"
1!"
0e!
0m!
1("
1f!
1l!
1["
1/"
0*"
1""
0!"
0f!
0l!
0["
1g!
1k!
0U"
1Z"
0+"
1*"
0#"
0""
0g!
0k!
1j!
1Y"
0Z"
1,"
1+"
1#"
0j!
0X"
0Y"
0,"
1h!
1&"
1X"
1i!
0h!
0/"
0i!
1U"
0&"
1/"
0U"
#40
01
