Lab1/Files/VHDL_synth/vcd/IIR_syn.vcd
$date
	Sat Nov 13 16:12:54 2021
$end
$version
	ModelSim Version 6.2g
$end
$timescale
	1ns
$end
$scope module tb_fir $end
$scope module UUT $end
$var wire 1 ! DIN [13] $end
$var wire 1 " DIN [12] $end
$var wire 1 # DIN [11] $end
$var wire 1 $ DIN [10] $end
$var wire 1 % DIN [9] $end
$var wire 1 & DIN [8] $end
$var wire 1 ' DIN [7] $end
$var wire 1 ( DIN [6] $end
$var wire 1 ) DIN [5] $end
$var wire 1 * DIN [4] $end
$var wire 1 + DIN [3] $end
$var wire 1 , DIN [2] $end
$var wire 1 - DIN [1] $end
$var wire 1 . DIN [0] $end
$var wire 1 / VIN $end
$var wire 1 0 RST_n $end
$var wire 1 1 CLK $end
$var wire 1 2 a0 [13] $end
$var wire 1 3 a0 [12] $end
$var wire 1 4 a0 [11] $end
$var wire 1 5 a0 [10] $end
$var wire 1 6 a0 [9] $end
$var wire 1 7 a0 [8] $end
$var wire 1 8 a0 [7] $end
$var wire 1 9 a0 [6] $end
$var wire 1 : a0 [5] $end
$var wire 1 ; a0 [4] $end
$var wire 1 < a0 [3] $end
$var wire 1 = a0 [2] $end
$var wire 1 > a0 [1] $end
$var wire 1 ? a0 [0] $end
$var wire 1 @ a1 [13] $end
$var wire 1 A a1 [12] $end
$var wire 1 B a1 [11] $end
$var wire 1 C a1 [10] $end
$var wire 1 D a1 [9] $end
$var wire 1 E a1 [8] $end
$var wire 1 F a1 [7] $end
$var wire 1 G a1 [6] $end
$var wire 1 H a1 [5] $end
$var wire 1 I a1 [4] $end
$var wire 1 J a1 [3] $end
$var wire 1 K a1 [2] $end
$var wire 1 L a1 [1] $end
$var wire 1 M a1 [0] $end
$var wire 1 N b0 [13] $end
$var wire 1 O b0 [12] $end
$var wire 1 P b0 [11] $end
$var wire 1 Q b0 [10] $end
$var wire 1 R b0 [9] $end
$var wire 1 S b0 [8] $end
$var wire 1 T b0 [7] $end
$var wire 1 U b0 [6] $end
$var wire 1 V b0 [5] $end
$var wire 1 W b0 [4] $end
$var wire 1 X b0 [3] $end
$var wire 1 Y b0 [2] $end
$var wire 1 Z b0 [1] $end
$var wire 1 [ b0 [0] $end
$var wire 1 \ b1 [13] $end
$var wire 1 ] b1 [12] $end
$var wire 1 ^ b1 [11] $end
$var wire 1 _ b1 [10] $end
$var wire 1 ` b1 [9] $end
$var wire 1 a b1 [8] $end
$var wire 1 b b1 [7] $end
$var wire 1 c b1 [6] $end
$var wire 1 d b1 [5] $end
$var wire 1 e b1 [4] $end
$var wire 1 f b1 [3] $end
$var wire 1 g b1 [2] $end
$var wire 1 h b1 [1] $end
$var wire 1 i b1 [0] $end
$var wire 1 j DOUT [13] $end
$var wire 1 k DOUT [12] $end
$var wire 1 l DOUT [11] $end
$var wire 1 m DOUT [10] $end
$var wire 1 n DOUT [9] $end
$var wire 1 o DOUT [8] $end
$var wire 1 p DOUT [7] $end
$var wire 1 q DOUT [6] $end
$var wire 1 r DOUT [5] $end
$var wire 1 s DOUT [4] $end
$var wire 1 t DOUT [3] $end
$var wire 1 u DOUT [2] $end
$var wire 1 v DOUT [1] $end
$var wire 1 w DOUT [0] $end
$var wire 1 x VOUT $end
$var wire 1 y FE_PHN2_n53 $end
$var wire 1 z FE_PHN1_n60 $end
$var wire 1 { FE_PHN0_n53 $end
$var wire 1 | FE_OFN0_w_past_0 $end
$var wire 1 } N4 $end
$var wire 1 ~ N5 $end
$var wire 1 !! N6 $end
$var wire 1 "! N7 $end
$var wire 1 #! N8 $end
$var wire 1 $! N9 $end
$var wire 1 %! N10 $end
$var wire 1 &! N11 $end
$var wire 1 '! N12 $end
$var wire 1 (! N13 $end
$var wire 1 )! N14 $end
$var wire 1 *! N15 $end
$var wire 1 +! N16 $end
$var wire 1 ,! N17 $end
$var wire 1 -! N18 $end
$var wire 1 .! N19 $end
$var wire 1 /! N20 $end
$var wire 1 0! N21 $end
$var wire 1 1! N22 $end
$var wire 1 2! N23 $end
$var wire 1 3! N24 $end
$var wire 1 4! N25 $end
$var wire 1 5! N26 $end
$var wire 1 6! N27 $end
$var wire 1 7! N28 $end
$var wire 1 8! N29 $end
$var wire 1 9! N30 $end
$var wire 1 :! N31 $end
$var wire 1 ;! N32 $end
$var wire 1 <! N33 $end
$var wire 1 =! N34 $end
$var wire 1 >! N35 $end
$var wire 1 ?! N36 $end
$var wire 1 @! N37 $end
$var wire 1 A! N38 $end
$var wire 1 B! N39 $end
$var wire 1 C! N40 $end
$var wire 1 D! N41 $end
$var wire 1 E! N42 $end
$var wire 1 F! N43 $end
$var wire 1 G! N44 $end
$var wire 1 H! N45 $end
$var wire 1 I! n29 $end
$var wire 1 J! n30 $end
$var wire 1 K! n32 $end
$var wire 1 L! n33 $end
$var wire 1 M! n34 $end
$var wire 1 N! n35 $end
$var wire 1 O! n36 $end
$var wire 1 P! n37 $end
$var wire 1 Q! n38 $end
$var wire 1 R! n39 $end
$var wire 1 S! n40 $end
$var wire 1 T! n41 $end
$var wire 1 U! n42 $end
$var wire 1 V! n43 $end
$var wire 1 W! n44 $end
$var wire 1 X! n45 $end
$var wire 1 Y! n46 $end
$var wire 1 Z! n47 $end
$var wire 1 [! n48 $end
$var wire 1 \! n49 $end
$var wire 1 ]! n50 $end
$var wire 1 ^! n51 $end
$var wire 1 _! n52 $end
$var wire 1 `! n53 $end
$var wire 1 a! n54 $end
$var wire 1 b! n55 $end
$var wire 1 c! n60 $end
$var wire 1 d! n61 $end
$var wire 1 e! n62 $end
$var wire 1 f! n63 $end
$var wire 1 g! n64 $end
$var wire 1 h! n65 $end
$var wire 1 i! n66 $end
$var wire 1 j! n67 $end
$var wire 1 k! n68 $end
$var wire 1 l! n69 $end
$var wire 1 m! n70 $end
$var wire 1 n! n71 $end
$var wire 1 o! n72 $end
$var wire 1 p! n73 $end
$var wire 1 q! n74 $end
$var wire 1 r! n75 $end
$var wire 1 s! n76 $end
$var wire 1 t! n77 $end
$var wire 1 u! n78 $end
$var wire 1 v! n79 $end
$var wire 1 w! n80 $end
$var wire 1 x! n81 $end
$var wire 1 y! n82 $end
$var wire 1 z! w_past [14] $end
$var wire 1 {! w_past [13] $end
$var wire 1 |! w_past [12] $end
$var wire 1 }! w_past [11] $end
$var wire 1 ~! w_past [10] $end
$var wire 1 !" w_past [9] $end
$var wire 1 "" w_past [8] $end
$var wire 1 #" w_past [7] $end
$var wire 1 $" w_past [6] $end
$var wire 1 %" w_past [5] $end
$var wire 1 &" w_past [4] $end
$var wire 1 '" w_past [3] $end
$var wire 1 (" w_past [2] $end
$var wire 1 )" w_past [1] $end
$var wire 1 *" w_past [0] $end
$var wire 1 +" fb [5] $end
$var wire 1 ," fb [4] $end
$var wire 1 -" fb [3] $end
$var wire 1 ." fb [2] $end
$var wire 1 /" fb [1] $end
$var wire 1 0" fb [0] $end
$var wire 1 1" w [14] $end
$var wire 1 2" w [13] $end
$var wire 1 3" w [12] $end
$var wire 1 4" w [11] $end
$var wire 1 5" w [10] $end
$var wire 1 6" w [9] $end
$var wire 1 7" w [8] $end
$var wire 1 8" w [7] $end
$var wire 1 9" w [6] $end
$var wire 1 :" w [5] $end
$var wire 1 ;" w [4] $end
$var wire 1 <" w [3] $end
$var wire 1 =" w [2] $end
$var wire 1 >" w [1] $end
$var wire 1 ?" w [0] $end
$var wire 1 @" ff_tmp_0 [26] $end
$var wire 1 A" ff_tmp_0 [25] $end
$var wire 1 B" ff_tmp_0 [24] $end
$var wire 1 C" ff_tmp_0 [23] $end
$var wire 1 D" ff_tmp_0 [22] $end
$var wire 1 E" ff_tmp_0 [21] $end
$var wire 1 F" ff_tmp_0 [20] $end
$var wire 1 G" ff_tmp_1 [26] $end
$var wire 1 H" ff_tmp_1 [25] $end
$var wire 1 I" ff_tmp_1 [24] $end
$var wire 1 J" ff_tmp_1 [23] $end
$var wire 1 K" ff_tmp_1 [22] $end
$var wire 1 L" ff_tmp_1 [21] $end
$var wire 1 M" ff_tmp_1 [20] $end
$var wire 1 N" add_37/carry [14] $end
$var wire 1 O" add_37/carry [13] $end
$var wire 1 P" add_37/carry [12] $end
$var wire 1 Q" add_37/carry [11] $end
$var wire 1 R" add_37/carry [10] $end
$var wire 1 S" add_37/carry [9] $end
$var wire 1 T" add_37/carry [8] $end
$var wire 1 U" add_37/carry [7] $end
$var wire 1 V" add_37/carry [6] $end
$var wire 1 W" add_37/carry [5] $end
$var wire 1 X" add_37/carry [4] $end
$var wire 1 Y" add_37/carry [3] $end
$var wire 1 Z" add_37/carry [2] $end
$var wire 1 [" add_37/carry [1] $end
$upscope $end
$upscope $end
$enddefinitions $end
#0
$dumpvars
01
00
x.
x-
x,
x+
x*
x)
x(
x'
x&
x%
x$
x#
x"
x!
x/
1?
0>
0=
0<
0;
0:
09
08
07
06
05
04
03
02
0M
1L
0K
0J
1I
0H
0G
0F
1E
0D
1C
0B
0A
0@
1[
1Z
1Y
0X
1W
1V
1U
0T
1S
0R
1Q
1P
0O
0N
1i
1h
1g
0f
1e
1d
1c
0b
1a
0`
1_
1^
0]
0\
0w
0v
0u
0t
0s
0r
0q
xp
xo
xn
xm
xl
xk
xj
xx
0y
1z
0{
x|
x}
x~
x!!
x"!
x#!
x$!
x%!
x&!
x'!
x(!
x)!
x*!
x+!
x,!
x-!
x.!
x/!
x0!
x1!
x2!
x3!
04!
05!
06!
07!
08!
09!
0:!
x;!
x<!
x=!
x>!
x?!
x@!
xA!
0B!
0C!
0D!
0E!
0F!
0G!
0H!
1I!
0J!
1K!
1L!
1M!
1N!
1O!
1P!
1Q!
1R!
1S!
1T!
1U!
1V!
1W!
1X!
1Y!
1Z!
1[!
1\!
1]!
1^!
1_!
0`!
1a!
0b!
1c!
0d!
0e!
0f!
0g!
0h!
0i!
0j!
0k!
0l!
0m!
0n!
0o!
0p!
0q!
0r!
0s!
0t!
0u!
0v!
0w!
0x!
0y!
x*"
x)"
x("
x'"
x&"
x%"
x$"
x#"
x""
x!"
x~!
x}!
x|!
x{!
xz!
00"
0/"
0."
0-"
0,"
0+"
0?"
0>"
0="
0<"
0;"
0:"
09"
08"
07"
06"
05"
04"
03"
02"
01"
0F"
0E"
0D"
0C"
0B"
0A"
0@"
0M"
0L"
0K"
0J"
0I"
0H"
0G"
0["
0Z"
0Y"
0X"
0W"
0V"
0U"
0T"
0S"
0R"
0Q"
0P"
0O"
0N"
$end
#1
0!
0"
0#
0$
0%
0&
0'
0(
0)
0*
0+
0,
0-
0.
0/
03!
02!
01!
00!
0/!
0.!
0-!
0,!
0+!
0*!
0)!
0(!
0'!
0&!
0%!
#5
11
0*"
0)"
0("
0'"
0&"
0%"
0$"
0#"
0""
0!"
0~!
0}!
0|!
0{!
0z!
0x
0j
0k
0l
0m
0n
0o
0p
0|
0}
0;!
0~
0<!
0!!
0=!
0"!
0>!
0#!
0?!
0@!
0$!
0A!
#10
01
#15
10
0c!
11
0a!
0z
1b!
1J!
0J!
#16
1/
1`!
1a!
1{
0b!
1y
1J!
#20
01
#25
11
1x
#26
1#
1&
1'
1(
1)
1-
1.
10!
1-!
1,!
1+!
1*!
1&!
1%!
14"
17"
18"
19"
1:"
1>"
1?"
0\!
0Y!
0X!
0W!
0V!
0R!
0Q!
1n!
1q!
1r!
1s!
1t!
1x!
1y!
17!
18!
1C"
08!
1B"
15!
14!
1E!
0B"
1F!
1E"
16!
04!
1F"
0M!
0F!
0N!
1C!
1D"
07!
0F"
05!
1B!
1g!
1N!
1f!
0K!
1D!
0C"
0B!
0E"
06!
0I!
0f!
1i!
0L!
0E!
1I!
0C!
0D"
17!
1j!
1h!
1M!
0j!
1K!
0D!
1C"
0g!
0i!
1L!
1E!
0h!
0M!
1g!
#30
01
#35
11
1}!
1""
1#"
1$"
1%"
1)"
1*"
1m
1|
1>!
1?!
1J"
0?!
1I"
1<!
1~
1!!
1"!
1;!
0E!
0I"
1F!
1L"
1=!
0;!
1/"
0!!
1."
0"!
1-"
1}
0~
1M"
1M!
0N!
1C!
1K"
0>!
0M"
0<!
0&!
1Z"
0."
1'!
0-"
1(!
10"
1~
0/"
1!!
1B!
0g!
1f!
0K!
1D!
0J"
0B!
0L"
0=!
0>"
1="
0(!
1<"
0%!
1["
1/"
0!!
1&!
0Z"
1."
0I!
1i!
0L!
1E!
1I!
0C!
0K"
1>!
1R!
0S!
0<"
0T!
0?"
1Z"
0."
1>"
1j!
1h!
0M!
0F!
0j!
1K!
0D!
1J"
0x!
1w!
1T!
1v!
1Q!
0R!
1g!
1N!
0i!
1L!
0E!
0v!
0y!
1x!
0f!
0h!
1M!
1F!
0g!
0N!
1f!
#36
0#
0&
0'
0(
0)
0-
0.
00!
0-!
0,!
0+!
0*!
0&!
1%!
0["
04"
07"
08"
09"
0:"
0>"
1?"
1&!
0Z"
1\!
1Y!
1X!
1W!
1V!
1R!
0Q!
1>"
0'!
0n!
0q!
0r!
0s!
0t!
0x!
1y!
0R!
0="
1x!
1S!
07!
18!
0w!
0C"
08!
1B"
19!
16!
14!
1E!
0B"
09!
0F!
1A"
1D"
04!
15!
1F"
06!
0M!
0A"
1N!
1:!
1D!
0F"
05!
1E"
16!
1B!
0D"
1g!
0:!
0f!
1H!
1@"
0L!
0B!
0E"
06!
1C!
1D"
17!
0I!
0D!
0@"
0P!
1h!
1I!
0C!
0D"
07!
0K!
1D!
1C"
18!
1j!
1L!
0H!
1d!
0j!
1K!
0D!
0C"
08!
1i!
0L!
0E!
1B"
19!
0h!
1P!
0i!
1L!
1E!
0B"
09!
1h!
1M!
1A"
0d!
0h!
0M!
0A"
0g!
1:!
14!
1g!
0:!
1H!
1@"
1F"
15!
04!
0@"
0P!
1B!
1E"
16!
0F"
05!
0H!
1d!
0I!
1C!
1D"
17!
0B!
0E"
06!
1P!
1j!
0K!
1D!
1C"
18!
1I!
0C!
0D"
07!
0d!
1i!
0L!
0E!
1B"
19!
0j!
1K!
0D!
0C"
08!
1h!
1M!
1A"
0i!
1L!
1E!
0B"
09!
0g!
1:!
0h!
0M!
0A"
1H!
1@"
1g!
0:!
0P!
0@"
1d!
0H!
1P!
0d!
#40
01
#45
11
0}!
0""
0#"
0$"
0%"
0>!
1?!
0J"
0?!
1I"
1@!
1=!
0~
1!!
1"!
1;!
0E!
0I"
0@!
1F!
1H"
1K"
0;!
1<!
0/"
0!!
1."
1-"
1#!
0}
1~
1M"
0=!
1M!
0F!
0H"
0N!
1G!
1A!
1D!
0M"
0<!
1L"
1=!
0&!
0."
0"!
1'!
1(!
1,"
00"
0~
1/"
1!!
1B!
0K"
0g!
1N!
0G!
0A!
1f!
0O!
1G"
0L!
0B!
0L"
0=!
1C!
1K"
1>!
0>"
0'!
0-"
0#!
1="
1<"
1)!
0%!
0/"
0!!
1&!
1."
1"!
0I!
0D!
0f!
1O!
0G"
1e!
1H!
1h!
1I!
0C!
0K"
0>!
0K!
1D!
1J"
1?!
1R!
0="
0(!
0,"
0S!
0T!
1;"
1$!
0?"
0&!
0."
0"!
1>"
1'!
1-"
1#!
1j!
1L!
1}
0e!
0H!
0P!
0j!
1K!
0D!
0J"
0?!
1i!
0L!
1E!
1I"
1@!
0x!
1S!
0<"
0)!
1w!
1v!
0U!
1+"
1Q!
0>"
0'!
0-"
0#!
0R!
1="
1(!
1,"
0h!
10"
1~
1P!
1d!
0i!
1L!
0E!
0I"
0@!
1h!
0M!
1F!
1H"
0w!
1T!
0;"
0$!
1u!
13!
12!
11!
10!
1/!
1.!
1-!
1,!
1+!
1*!
0y!
1R!
0="
0(!
0,"
1x!
0S!
1<"
1)!
1%!
1/"
1!!
0}
0d!
0h!
1M!
0F!
0H"
1g!
0N!
1G!
1A!
0v!
1U!
0+"
11"
12"
13"
14"
15"
16"
17"
18"
19"
1:"
0x!
1S!
0<"
0)!
1w!
0T!
1;"
1$!
1?"
1&!
1."
1"!
00"
0~
1}
1;!
0g!
1N!
0G!
0A!
1f!
0O!
1G"
0u!
03!
02!
01!
00!
0/!
0.!
0-!
0,!
0+!
0*!
0_!
0^!
0]!
0\!
0[!
0Z!
0Y!
0X!
0W!
0V!
0w!
1T!
0;"
0$!
1v!
0U!
1+"
0Q!
1>"
1'!
1-"
1#!
0%!
0/"
0!!
10"
1~
1M"
1<!
0;!
0f!
1O!
0G"
1e!
1H!
01"
02"
03"
04"
05"
06"
07"
08"
09"
0:"
1k!
1l!
1m!
1n!
1o!
1p!
1q!
1r!
1s!
1t!
0v!
1U!
0+"
1u!
13!
12!
11!
10!
1/!
1.!
1-!
1,!
1+!
1*!
1y!
0R!
1="
1(!
1,"
0?"
0&!
0."
0"!
1%!
1/"
1!!
1B!
1L"
1=!
0M"
0<!
0}
0e!
0H!
0P!
1_!
1^!
1]!
1\!
1[!
1Z!
1Y!
1X!
1W!
1V!
1:!
0u!
03!
02!
01!
00!
0/!
0.!
0-!
0,!
0+!
0*!
11"
12"
13"
14"
15"
16"
17"
18"
19"
1:"
1x!
0S!
1<"
1)!
1Q!
0>"
0'!
0-"
0#!
1?"
1&!
1."
1"!
0I!
1C!
1K"
1>!
0B!
0L"
0=!
00"
0~
1P!
1d!
0k!
0l!
0m!
0n!
0o!
0p!
0q!
0r!
0s!
0t!
1@"
19!
17!
01"
02"
03"
04"
05"
06"
07"
08"
09"
0:"
0_!
0^!
0]!
0\!
0[!
0Z!
0Y!
0X!
0W!
0V!
1w!
0T!
1;"
1$!
0y!
1R!
0="
0(!
0,"
0Q!
1>"
1'!
1-"
1#!
1j!
0K!
1D!
1J"
1?!
1I!
0C!
0K"
0>!
0%!
0/"
0!!
0d!
0:!
09!
1H!
16!
07!
1A"
1C"
1_!
1^!
1]!
1\!
1[!
1Z!
1Y!
1X!
1W!
1V!
1k!
1l!
1m!
1n!
1o!
1p!
1q!
1r!
1s!
1t!
1v!
0U!
1+"
0x!
1S!
0<"
0)!
1y!
0R!
1="
1(!
1,"
1i!
0L!
1E!
1I"
1@!
0j!
1K!
0D!
0J"
0?!
0?"
0&!
0."
0"!
0@"
19!
15!
06!
0A"
0P!
1D"
0C"
1G!
0k!
0l!
0m!
0n!
0o!
0p!
0q!
0r!
0s!
0t!
1u!
13!
12!
11!
10!
1/!
1.!
1-!
1,!
1+!
1*!
0w!
1T!
0;"
0$!
1x!
0S!
1<"
1)!
1h!
0M!
1F!
1H"
0i!
1L!
0I"
0@!
1Q!
0>"
0'!
0-"
0#!
14!
09!
0H!
17!
1A"
1E"
0D"
1d!
1D!
0E!
0O!
1:!
18!
11"
12"
13"
14"
15"
16"
17"
18"
19"
1:"
0v!
1U!
0+"
1w!
0T!
1;"
1$!
1g!
0N!
1A!
0h!
0F!
0H"
0y!
1R!
0="
0(!
0,"
1F"
04!
05!
0A"
08!
1P!
1C"
1C!
0D!
0L!
1M!
1e!
1@"
1B"
0_!
0^!
0]!
0\!
0[!
0Z!
0Y!
0X!
0W!
0V!
0u!
03!
02!
01!
00!
0/!
0.!
0-!
0,!
0+!
0*!
1v!
0U!
1+"
1f!
1G"
1N!
0A!
0x!
1S!
0<"
0)!
1B!
0F"
0E"
16!
14!
0G!
18!
0B"
19!
0d!
1E!
0K!
1L!
1h!
0g!
1F!
1k!
1l!
1m!
1n!
1o!
1p!
1q!
1r!
1s!
1t!
01"
02"
03"
04"
05"
06"
07"
08"
09"
0:"
1u!
13!
12!
11!
10!
1/!
1.!
1-!
1,!
1+!
1*!
0f!
0G"
0w!
1T!
0;"
0$!
0I!
0B!
0C!
1D"
07!
1F"
15!
1O!
1B"
0F!
1A"
04!
0M!
1i!
0h!
06!
0N!
1_!
1^!
1]!
1\!
1[!
1Z!
1Y!
1X!
1W!
1V!
11"
12"
13"
14"
15"
16"
17"
18"
19"
1:"
1H!
0v!
1U!
0+"
1j!
1I!
1K!
1D!
0C"
08!
1B!
1E"
16!
0e!
1F!
1N!
1G!
0:!
0F"
05!
1g!
0D"
1f!
09!
17!
0k!
0l!
0m!
0n!
0o!
0p!
0q!
0r!
0s!
0t!
0_!
0^!
0]!
0\!
0[!
0Z!
0Y!
0X!
0W!
0V!
0P!
0u!
03!
02!
01!
00!
0/!
0.!
0-!
0,!
0+!
0*!
0j!
0i!
0L!
0E!
0B"
0I!
1C!
1D"
0N!
0f!
0O!
0@"
0B!
0E"
0D!
0A"
1C"
1:!
1k!
1l!
1m!
1n!
1o!
1p!
1q!
1r!
1s!
1t!
1d!
01"
02"
03"
04"
05"
06"
07"
08"
09"
0:"
1h!
1M!
0F!
1j!
0K!
1D!
1f!
1e!
0H!
1I!
0C!
1L!
15!
06!
07!
18!
19!
0G!
1E!
1@"
0:!
1_!
1^!
1]!
1\!
1[!
1Z!
1Y!
1X!
1W!
1V!
0g!
1N!
1i!
0L!
1P!
0j!
1K!
0h!
1E"
0D"
17!
14!
0C"
1B"
1A"
1O!
0M!
1H!
0@"
0k!
0l!
0m!
0n!
0o!
0p!
0q!
0r!
0s!
0t!
0f!
1h!
0d!
0i!
1C!
0D!
1C"
08!
1F"
05!
0E!
09!
1F!
1G!
0e!
1g!
04!
07!
0P!
0H!
1:!
0K!
1L!
1E!
0B"
1B!
0E"
1M!
0A"
0N!
0O!
0F"
14!
0C"
1d!
0:!
19!
1P!
1@"
1i!
0h!
0M!
0F!
0I!
0C!
0g!
0G!
1:!
1f!
1e!
0B!
1F"
15!
0E!
04!
0@"
1A"
0d!
18!
09!
1H!
16!
1g!
1N!
1j!
1K!
1O!
1@"
1I!
1B!
1E"
1M!
0F"
05!
0H!
1G!
1B"
19!
0A"
08!
0P!
1D"
14!
0f!
0i!
0e!
1H!
0j!
0I!
1C!
17!
0g!
0B!
0E"
06!
1P!
0O!
1F!
1A"
0G!
0:!
0B"
09!
1d!
1D!
1F"
0P!
1j!
0K!
1C"
18!
1I!
0C!
0D"
07!
0d!
1e!
15!
0N!
1G!
1:!
1O!
0@"
0F!
0A"
0L!
1B!
1d!
1i!
1E!
1B"
19!
0j!
1K!
0D!
0C"
08!
1E"
16!
1f!
0O!
1@"
0e!
0H!
1N!
0G!
0:!
1h!
0I!
0M!
1F!
1A"
0i!
1L!
0E!
0B"
09!
1C!
1D"
17!
1e!
1H!
1P!
0f!
1O!
0@"
1j!
04!
1g!
0N!
1G!
1:!
0h!
1M!
0F!
0A"
0K!
1D!
1C"
18!
0P!
0d!
0e!
0H!
0F"
05!
1f!
0O!
1@"
0g!
1N!
0G!
0:!
1i!
0L!
1E!
1B"
19!
1d!
1P!
0B!
0E"
06!
14!
1e!
1H!
0f!
1O!
0@"
1h!
0M!
1F!
1A"
0d!
1I!
0C!
0D"
07!
1F"
15!
04!
0P!
0e!
0H!
1g!
0N!
1G!
1:!
0j!
1K!
0D!
0C"
08!
1B!
1E"
16!
0F"
05!
14!
1d!
1P!
1f!
0O!
1@"
0i!
1L!
0E!
0B"
09!
0I!
1C!
1D"
17!
0B!
0E"
06!
1F"
15!
0d!
1e!
1H!
0h!
1M!
0F!
0A"
1j!
0K!
1D!
1C"
18!
1I!
0C!
0D"
07!
1B!
1E"
16!
04!
0P!
0g!
1N!
0G!
0:!
1i!
0L!
1E!
1B"
19!
0j!
1K!
0D!
0C"
08!
0I!
1C!
1D"
17!
0F"
05!
14!
1d!
0f!
1O!
0@"
1h!
0M!
1F!
1A"
0i!
1L!
0E!
0B"
09!
1j!
0K!
1D!
1C"
18!
0B!
0E"
06!
1F"
15!
04!
0e!
0H!
1g!
0N!
1G!
1:!
0h!
1M!
0F!
0A"
1i!
0L!
1E!
1B"
19!
1I!
0C!
0D"
07!
1B!
1E"
16!
0F"
05!
14!
1P!
1f!
0O!
1@"
0g!
1N!
0G!
0:!
1h!
0M!
1F!
1A"
0j!
1K!
0D!
0C"
08!
0I!
1C!
1D"
17!
0B!
0E"
06!
1F"
15!
04!
0d!
1e!
1H!
0f!
1O!
0@"
1g!
0N!
1G!
1:!
0i!
1L!
0E!
0B"
09!
1j!
0K!
1D!
1C"
18!
1I!
0C!
0D"
07!
1B!
1E"
16!
0F"
05!
0P!
0e!
0H!
1f!
0O!
1@"
0h!
1M!
0F!
0A"
1i!
0L!
1E!
1B"
19!
0j!
1K!
0D!
0C"
08!
0I!
1C!
1D"
17!
0B!
0E"
06!
1d!
1P!
1e!
1H!
0g!
1N!
0G!
0:!
1h!
0M!
1F!
1A"
0i!
1L!
0E!
0B"
09!
1j!
0K!
1D!
1C"
18!
1I!
0C!
0D"
07!
0d!
0P!
0f!
1O!
0@"
1g!
0N!
1G!
1:!
0h!
1M!
0F!
0A"
1i!
0L!
1E!
1B"
19!
0j!
1K!
0D!
0C"
08!
1d!
0e!
0H!
1f!
0O!
1@"
0g!
1N!
0G!
0:!
1h!
0M!
1F!
1A"
0i!
1L!
0E!
0B"
09!
1P!
1e!
1H!
0f!
1O!
0@"
1g!
0N!
1G!
1:!
0h!
1M!
0F!
0A"
0d!
0P!
0e!
0H!
1f!
0O!
1@"
0g!
1N!
0G!
0:!
1d!
1P!
1e!
1H!
0f!
1O!
0@"
0d!
0P!
0e!
0H!
1d!
1P!
0d!
#46
1"
1#
1&
1'
1(
1)
1-
1.
11!
10!
1-!
1,!
1+!
1*!
1&!
1%!
13"
14"
17"
18"
19"
1:"
1>"
1?"
0]!
0\!
0Y!
0X!
0W!
0V!
0R!
0Q!
1m!
1n!
1q!
1r!
1s!
1t!
1x!
1y!
19!
17!
1A"
07!
1C"
15!
16!
1G!
0C"
18!
09!
1E!
1E"
06!
1D"
0O!
0E!
1B"
0A"
16!
0M!
1C!
0D"
1D!
1e!
1M!
1F!
0G!
1D"
1g!
0K!
0D!
0L!
14!
0g!
0N!
1O!
1D!
1i!
1L!
1h!
1F"
05!
1f!
0e!
0L!
0h!
1B!
0E"
1h!
0I!
0C!
1j!
1K!
0i!
#50
01
#55
11
1}!
1""
1#"
1$"
1%"
1|!
1n
1p
1l
0m
1>!
1@!
1J"
1<!
1=!
1H"
0>!
1"!
1#!
1}
1E!
0@!
1L"
0=!
1K"
0}
1G!
0J"
1?!
1-"
0#!
1,"
10"
1~
0M!
0H"
1C!
0K"
0D!
1=!
00"
0~
0O!
0E!
1I"
1(!
0,"
1)!
0%!
1["
1/"
1!!
1g!
0G!
0K!
1D!
1L!
1E!
1K"
1%!
0["
0/"
0!!
1e!
1M!
0F!
1<"
0)!
1;"
0?"
1Z"
1."
0"!
1;!
1O!
1i!
0L!
0E!
0h!
0M!
0D!
1?"
0Z"
0."
1"!
0g!
1N!
1G!
0T!
0;"
0U!
1Q!
1Y"
0-"
1M"
0<!
0e!
1h!
1M!
1g!
1L!
1E!
0Q!
0Y"
1-"
0f!
0O!
1v!
1U!
1u!
0y!
0B!
0L"
0g!
0h!
0M!
1y!
1e!
0u!
1I!
1g!
0j!
#56
0"
0#
0&
0'
0(
0)
0-
0.
01!
00!
0-!
0,!
0+!
0*!
0&!
0%!
03"
04"
07"
08"
09"
0:"
0>"
0?"
1]!
1\!
1Y!
1X!
1W!
1V!
1R!
1Q!
0m!
0n!
0q!
0r!
0s!
0t!
0x!
0y!
08!
19!
17!
0B"
09!
1A"
07!
1C"
18!
15!
1F!
0A"
0G!
1:!
0C"
08!
0E!
1B"
19!
1E"
0N!
0:!
1O!
1H!
1@"
1E!
0B"
09!
17!
1M!
1A"
0C!
1f!
0@"
0e!
0P!
0M!
0A"
1C"
18!
0g!
1:!
1K!
1D!
04!
1d!
1g!
0:!
0E!
1B"
19!
1@"
0i!
0L!
0F"
05!
0@"
1M!
1A"
1h!
1B!
0E"
06!
14!
0H!
0g!
1:!
0I!
0D"
07!
1F"
15!
1P!
1H!
1@"
1j!
0C"
08!
0B!
1E"
16!
0d!
0P!
0H!
0B"
09!
1I!
1D"
17!
04!
1d!
1P!
0A"
0j!
1C"
18!
0F"
05!
0d!
0:!
1B"
19!
1B!
0E"
06!
1H!
0@"
1A"
0I!
0D"
07!
0P!
0H!
1:!
1j!
0C"
08!
1d!
1P!
1H!
1@"
0B"
09!
0d!
0P!
0H!
0A"
1d!
1P!
0:!
0d!
1H!
0@"
0P!
0H!
1d!
1P!
0d!
#60
01
